Suite/Test/Step Name,Browser,Description,Tag,Start time,End time,Duration,Status
testSuites1,Chrome 114.0.0.0,,,2023-06-27 11:56:09,2023-06-27 11:56:35,25.958s,PASSED
,,,,,,,
Test Cases/LoginValidData,Chrome 114.0.0.0,,,2023-06-27 11:56:09,2023-06-27 11:56:16,6.349s,PASSED
Start listener action : sampleBeforeTestCase,Chrome 114.0.0.0,,,2023-06-27 11:56:09,2023-06-27 11:56:12,3.151s,PASSED
"setText(findTestObject(""Page_Swag Labs/inputUsername""), username_V)",Chrome 114.0.0.0,,,2023-06-27 11:56:13,2023-06-27 11:56:14,0.888s,PASSED
"setText(findTestObject(""Page_Swag Labs/inputPassword""), password_V)",Chrome 114.0.0.0,,,2023-06-27 11:56:14,2023-06-27 11:56:14,0.705s,PASSED
"click(findTestObject(""Page_Swag Labs/buttonLogin""))",Chrome 114.0.0.0,,,2023-06-27 11:56:14,2023-06-27 11:56:15,0.480s,PASSED
Start listener action : sampleAfterTestCase,Chrome 114.0.0.0,,,2023-06-27 11:56:15,2023-06-27 11:56:16,0.677s,PASSED
,,,,,,,
Test Cases/LoginValidData,Chrome 114.0.0.0,,,2023-06-27 11:56:16,2023-06-27 11:56:20,4.794s,PASSED
Start listener action : sampleBeforeTestCase,Chrome 114.0.0.0,,,2023-06-27 11:56:16,2023-06-27 11:56:18,2.067s,PASSED
"setText(findTestObject(""Page_Swag Labs/inputUsername""), username_V)",Chrome 114.0.0.0,,,2023-06-27 11:56:18,2023-06-27 11:56:19,0.879s,PASSED
"setText(findTestObject(""Page_Swag Labs/inputPassword""), password_V)",Chrome 114.0.0.0,,,2023-06-27 11:56:19,2023-06-27 11:56:19,0.759s,PASSED
"click(findTestObject(""Page_Swag Labs/buttonLogin""))",Chrome 114.0.0.0,,,2023-06-27 11:56:19,2023-06-27 11:56:20,0.406s,PASSED
Start listener action : sampleAfterTestCase,Chrome 114.0.0.0,,,2023-06-27 11:56:20,2023-06-27 11:56:20,0.665s,PASSED
,,,,,,,
Test Cases/LoginValidData,Chrome 114.0.0.0,,,2023-06-27 11:56:20,2023-06-27 11:56:25,4.702s,PASSED
Start listener action : sampleBeforeTestCase,Chrome 114.0.0.0,,,2023-06-27 11:56:20,2023-06-27 11:56:22,1.898s,PASSED
"setText(findTestObject(""Page_Swag Labs/inputUsername""), username_V)",Chrome 114.0.0.0,,,2023-06-27 11:56:22,2023-06-27 11:56:23,0.868s,PASSED
"setText(findTestObject(""Page_Swag Labs/inputPassword""), password_V)",Chrome 114.0.0.0,,,2023-06-27 11:56:23,2023-06-27 11:56:24,0.818s,PASSED
"click(findTestObject(""Page_Swag Labs/buttonLogin""))",Chrome 114.0.0.0,,,2023-06-27 11:56:24,2023-06-27 11:56:24,0.462s,PASSED
Start listener action : sampleAfterTestCase,Chrome 114.0.0.0,,,2023-06-27 11:56:24,2023-06-27 11:56:25,0.647s,PASSED
,,,,,,,
Test Cases/LoginValidData,Chrome 114.0.0.0,,,2023-06-27 11:56:25,2023-06-27 11:56:35,9.535s,PASSED
Start listener action : sampleBeforeTestCase,Chrome 114.0.0.0,,,2023-06-27 11:56:25,2023-06-27 11:56:27,1.774s,PASSED
"setText(findTestObject(""Page_Swag Labs/inputUsername""), username_V)",Chrome 114.0.0.0,,,2023-06-27 11:56:27,2023-06-27 11:56:28,0.923s,PASSED
"setText(findTestObject(""Page_Swag Labs/inputPassword""), password_V)",Chrome 114.0.0.0,,,2023-06-27 11:56:28,2023-06-27 11:56:29,0.730s,PASSED
"click(findTestObject(""Page_Swag Labs/buttonLogin""))",Chrome 114.0.0.0,,,2023-06-27 11:56:29,2023-06-27 11:56:34,5.438s,PASSED
Start listener action : sampleAfterTestCase,Chrome 114.0.0.0,,,2023-06-27 11:56:34,2023-06-27 11:56:35,0.663s,PASSED
