Suite/Test/Step Name,Browser,Description,Tag,Start time,End time,Duration,Status
testSuites1,Chrome 114.0.0.0,,,2023-06-27 12:03:25,2023-06-27 12:04:17,52.235s,PASSED
,,,,,,,
Test Cases/LoginValidData,Chrome 114.0.0.0,,,2023-06-27 12:03:26,2023-06-27 12:03:33,7.338s,PASSED
Start listener action : sampleBeforeTestCase,Chrome 114.0.0.0,,,2023-06-27 12:03:26,2023-06-27 12:03:29,3.502s,PASSED
"setText(findTestObject(""Page_Swag Labs/inputUsername""), username_V)",Chrome 114.0.0.0,,,2023-06-27 12:03:30,2023-06-27 12:03:31,0.969s,PASSED
"setText(findTestObject(""Page_Swag Labs/inputPassword""), password_V)",Chrome 114.0.0.0,,,2023-06-27 12:03:31,2023-06-27 12:03:31,0.725s,PASSED
"click(findTestObject(""Page_Swag Labs/buttonLogin""))",Chrome 114.0.0.0,,,2023-06-27 12:03:31,2023-06-27 12:03:32,0.503s,PASSED
Start listener action : sampleAfterTestCase,Chrome 114.0.0.0,,,2023-06-27 12:03:32,2023-06-27 12:03:33,1.164s,PASSED
,,,,,,,
Test Cases/LoginValidData,Chrome 114.0.0.0,,,2023-06-27 12:03:33,2023-06-27 12:03:38,4.435s,PASSED
Start listener action : sampleBeforeTestCase,Chrome 114.0.0.0,,,2023-06-27 12:03:33,2023-06-27 12:03:35,1.731s,PASSED
"setText(findTestObject(""Page_Swag Labs/inputUsername""), username_V)",Chrome 114.0.0.0,,,2023-06-27 12:03:35,2023-06-27 12:03:36,0.849s,PASSED
"setText(findTestObject(""Page_Swag Labs/inputPassword""), password_V)",Chrome 114.0.0.0,,,2023-06-27 12:03:36,2023-06-27 12:03:36,0.779s,PASSED
"click(findTestObject(""Page_Swag Labs/buttonLogin""))",Chrome 114.0.0.0,,,2023-06-27 12:03:36,2023-06-27 12:03:37,0.408s,PASSED
Start listener action : sampleAfterTestCase,Chrome 114.0.0.0,,,2023-06-27 12:03:37,2023-06-27 12:03:38,0.658s,PASSED
,,,,,,,
Test Cases/LoginValidData,Chrome 114.0.0.0,,,2023-06-27 12:03:38,2023-06-27 12:03:42,4.497s,PASSED
Start listener action : sampleBeforeTestCase,Chrome 114.0.0.0,,,2023-06-27 12:03:38,2023-06-27 12:03:39,1.737s,PASSED
"setText(findTestObject(""Page_Swag Labs/inputUsername""), username_V)",Chrome 114.0.0.0,,,2023-06-27 12:03:39,2023-06-27 12:03:40,0.898s,PASSED
"setText(findTestObject(""Page_Swag Labs/inputPassword""), password_V)",Chrome 114.0.0.0,,,2023-06-27 12:03:40,2023-06-27 12:03:41,0.727s,PASSED
"click(findTestObject(""Page_Swag Labs/buttonLogin""))",Chrome 114.0.0.0,,,2023-06-27 12:03:41,2023-06-27 12:03:41,0.452s,PASSED
Start listener action : sampleAfterTestCase,Chrome 114.0.0.0,,,2023-06-27 12:03:41,2023-06-27 12:03:42,0.675s,PASSED
,,,,,,,
Test Cases/LoginValidData,Chrome 114.0.0.0,,,2023-06-27 12:03:42,2023-06-27 12:03:52,9.548s,PASSED
Start listener action : sampleBeforeTestCase,Chrome 114.0.0.0,,,2023-06-27 12:03:42,2023-06-27 12:03:44,1.758s,PASSED
"setText(findTestObject(""Page_Swag Labs/inputUsername""), username_V)",Chrome 114.0.0.0,,,2023-06-27 12:03:44,2023-06-27 12:03:45,0.919s,PASSED
"setText(findTestObject(""Page_Swag Labs/inputPassword""), password_V)",Chrome 114.0.0.0,,,2023-06-27 12:03:45,2023-06-27 12:03:46,0.765s,PASSED
"click(findTestObject(""Page_Swag Labs/buttonLogin""))",Chrome 114.0.0.0,,,2023-06-27 12:03:46,2023-06-27 12:03:51,5.442s,PASSED
Start listener action : sampleAfterTestCase,Chrome 114.0.0.0,,,2023-06-27 12:03:51,2023-06-27 12:03:52,0.657s,PASSED
,,,,,,,
Test Cases/LoginInvalidData,Chrome 114.0.0.0,,,2023-06-27 12:03:52,2023-06-27 12:03:57,5.738s,PASSED
Start listener action : sampleBeforeTestCase,Chrome 114.0.0.0,,,2023-06-27 12:03:52,2023-06-27 12:03:53,1.731s,PASSED
"setText(findTestObject(""Page_Swag Labs/inputUsername""), username_I)",Chrome 114.0.0.0,,,2023-06-27 12:03:54,2023-06-27 12:03:55,0.855s,PASSED
"setText(findTestObject(""Page_Swag Labs/inputPassword""), password_I)",Chrome 114.0.0.0,,,2023-06-27 12:03:55,2023-06-27 12:03:55,0.729s,PASSED
"click(findTestObject(""Page_Swag Labs/buttonLogin""))",Chrome 114.0.0.0,,,2023-06-27 12:03:55,2023-06-27 12:03:56,0.402s,PASSED
"verifyElementVisible(findTestObject(""Page_Swag Labs/warningLogin""))",Chrome 114.0.0.0,,,2023-06-27 12:03:56,2023-06-27 12:03:56,0.510s,PASSED
Start listener action : sampleAfterTestCase,Chrome 114.0.0.0,,,2023-06-27 12:03:56,2023-06-27 12:03:57,1.127s,PASSED
,,,,,,,
Test Cases/LoginInvalidData,Chrome 114.0.0.0,,,2023-06-27 12:03:57,2023-06-27 12:04:02,4.905s,PASSED
Start listener action : sampleBeforeTestCase,Chrome 114.0.0.0,,,2023-06-27 12:03:57,2023-06-27 12:03:59,1.805s,PASSED
"setText(findTestObject(""Page_Swag Labs/inputUsername""), username_I)",Chrome 114.0.0.0,,,2023-06-27 12:03:59,2023-06-27 12:04:00,0.784s,PASSED
"setText(findTestObject(""Page_Swag Labs/inputPassword""), password_I)",Chrome 114.0.0.0,,,2023-06-27 12:04:00,2023-06-27 12:04:01,0.778s,PASSED
"click(findTestObject(""Page_Swag Labs/buttonLogin""))",Chrome 114.0.0.0,,,2023-06-27 12:04:01,2023-06-27 12:04:01,0.408s,PASSED
"verifyElementVisible(findTestObject(""Page_Swag Labs/warningLogin""))",Chrome 114.0.0.0,,,2023-06-27 12:04:01,2023-06-27 12:04:02,0.479s,PASSED
Start listener action : sampleAfterTestCase,Chrome 114.0.0.0,,,2023-06-27 12:04:02,2023-06-27 12:04:02,0.643s,PASSED
,,,,,,,
Test Cases/LoginInvalidData,Chrome 114.0.0.0,,,2023-06-27 12:04:02,2023-06-27 12:04:07,4.824s,PASSED
Start listener action : sampleBeforeTestCase,Chrome 114.0.0.0,,,2023-06-27 12:04:02,2023-06-27 12:04:04,1.693s,PASSED
"setText(findTestObject(""Page_Swag Labs/inputUsername""), username_I)",Chrome 114.0.0.0,,,2023-06-27 12:04:04,2023-06-27 12:04:05,0.797s,PASSED
"setText(findTestObject(""Page_Swag Labs/inputPassword""), password_I)",Chrome 114.0.0.0,,,2023-06-27 12:04:05,2023-06-27 12:04:06,0.732s,PASSED
"click(findTestObject(""Page_Swag Labs/buttonLogin""))",Chrome 114.0.0.0,,,2023-06-27 12:04:06,2023-06-27 12:04:06,0.396s,PASSED
"verifyElementVisible(findTestObject(""Page_Swag Labs/warningLogin""))",Chrome 114.0.0.0,,,2023-06-27 12:04:06,2023-06-27 12:04:07,0.511s,PASSED
Start listener action : sampleAfterTestCase,Chrome 114.0.0.0,,,2023-06-27 12:04:07,2023-06-27 12:04:07,0.689s,PASSED
,,,,,,,
Test Cases/LoginInvalidData,Chrome 114.0.0.0,,,2023-06-27 12:04:07,2023-06-27 12:04:12,5.077s,PASSED
Start listener action : sampleBeforeTestCase,Chrome 114.0.0.0,,,2023-06-27 12:04:07,2023-06-27 12:04:09,1.847s,PASSED
"setText(findTestObject(""Page_Swag Labs/inputUsername""), username_I)",Chrome 114.0.0.0,,,2023-06-27 12:04:09,2023-06-27 12:04:10,0.897s,PASSED
"setText(findTestObject(""Page_Swag Labs/inputPassword""), password_I)",Chrome 114.0.0.0,,,2023-06-27 12:04:10,2023-06-27 12:04:11,0.768s,PASSED
"click(findTestObject(""Page_Swag Labs/buttonLogin""))",Chrome 114.0.0.0,,,2023-06-27 12:04:11,2023-06-27 12:04:11,0.401s,PASSED
"verifyElementVisible(findTestObject(""Page_Swag Labs/warningLogin""))",Chrome 114.0.0.0,,,2023-06-27 12:04:11,2023-06-27 12:04:12,0.492s,PASSED
Start listener action : sampleAfterTestCase,Chrome 114.0.0.0,,,2023-06-27 12:04:12,2023-06-27 12:04:12,0.666s,PASSED
,,,,,,,
Test Cases/LoginInvalidData,Chrome 114.0.0.0,,,2023-06-27 12:04:12,2023-06-27 12:04:17,5.070s,PASSED
Start listener action : sampleBeforeTestCase,Chrome 114.0.0.0,,,2023-06-27 12:04:12,2023-06-27 12:04:14,1.899s,PASSED
"setText(findTestObject(""Page_Swag Labs/inputUsername""), username_I)",Chrome 114.0.0.0,,,2023-06-27 12:04:14,2023-06-27 12:04:15,0.840s,PASSED
"setText(findTestObject(""Page_Swag Labs/inputPassword""), password_I)",Chrome 114.0.0.0,,,2023-06-27 12:04:15,2023-06-27 12:04:16,0.742s,PASSED
"click(findTestObject(""Page_Swag Labs/buttonLogin""))",Chrome 114.0.0.0,,,2023-06-27 12:04:16,2023-06-27 12:04:16,0.412s,PASSED
"verifyElementVisible(findTestObject(""Page_Swag Labs/warningLogin""))",Chrome 114.0.0.0,,,2023-06-27 12:04:16,2023-06-27 12:04:17,0.496s,PASSED
Start listener action : sampleAfterTestCase,Chrome 114.0.0.0,,,2023-06-27 12:04:17,2023-06-27 12:04:17,0.674s,PASSED
